^D:\민주\PROJECTS\BACKUP\WET\WET\VIEWER.CPP|D:\민주\PROJECTS\BACKUP\WET\WET\WETCLOTH.CPP
D:\민주\PROJECTS\BACKUP\WET\WET\RELEASE\VC120.PDB
D:\민주\PROJECTS\BACKUP\WET\WET\RELEASE\WETCLOTH.OBJ
D:\민주\PROJECTS\BACKUP\WET\WET\RELEASE\VIEWER.OBJ
^D:\민주\PROJECTS\BACKUP\WET\WET\SIMULATOR.CPP|D:\민주\PROJECTS\BACKUP\WET\WET\VIEWER.CPP|D:\민주\PROJECTS\BACKUP\WET\WET\WETCLOTH.CPP
D:\민주\PROJECTS\BACKUP\WET\WET\RELEASE\VC120.PDB
D:\민주\PROJECTS\BACKUP\WET\WET\RELEASE\WETCLOTH.OBJ
D:\민주\PROJECTS\BACKUP\WET\WET\RELEASE\VIEWER.OBJ
D:\민주\PROJECTS\BACKUP\WET\WET\RELEASE\SIMULATOR.OBJ
^D:\민주\PROJECTS\BACKUP\WET\WET\MAIN.CPP|D:\민주\PROJECTS\BACKUP\WET\WET\SIMULATOR.CPP|D:\민주\PROJECTS\BACKUP\WET\WET\WETCLOTH.CPP
D:\민주\PROJECTS\BACKUP\WET\WET\RELEASE\VC120.PDB
D:\민주\PROJECTS\BACKUP\WET\WET\RELEASE\MAIN.OBJ
D:\민주\PROJECTS\BACKUP\WET\WET\RELEASE\WETCLOTH.OBJ
D:\민주\PROJECTS\BACKUP\WET\WET\RELEASE\SIMULATOR.OBJ
^D:\민주\PROJECTS\BACKUP\WET\WET\MAIN.CPP|D:\민주\PROJECTS\BACKUP\WET\WET\WETCLOTH.CPP
D:\민주\PROJECTS\BACKUP\WET\WET\RELEASE\VC120.PDB
D:\민주\PROJECTS\BACKUP\WET\WET\RELEASE\MAIN.OBJ
D:\민주\PROJECTS\BACKUP\WET\WET\RELEASE\WETCLOTH.OBJ
^D:\민주\PROJECTS\BACKUP\WET\WET\MAIN.CPP|D:\민주\PROJECTS\BACKUP\WET\WET\VIEWER.CPP
D:\민주\PROJECTS\BACKUP\WET\WET\RELEASE\VC120.PDB
D:\민주\PROJECTS\BACKUP\WET\WET\RELEASE\MAIN.OBJ
D:\민주\PROJECTS\BACKUP\WET\WET\RELEASE\VIEWER.OBJ
^D:\민주\PROJECTS\BACKUP\WET\WET\MAIN.CPP|D:\민주\PROJECTS\BACKUP\WET\WET\SIMULATOR.CPP
D:\민주\PROJECTS\BACKUP\WET\WET\RELEASE\VC120.PDB
D:\민주\PROJECTS\BACKUP\WET\WET\RELEASE\MAIN.OBJ
D:\민주\PROJECTS\BACKUP\WET\WET\RELEASE\SIMULATOR.OBJ
^D:\민주\PROJECTS\BACKUP\WET\WET\MAIN.CPP|D:\민주\PROJECTS\BACKUP\WET\WET\SIMULATOR.CPP|D:\민주\PROJECTS\BACKUP\WET\WET\VIEWER.CPP
D:\민주\PROJECTS\BACKUP\WET\WET\RELEASE\VC120.PDB
D:\민주\PROJECTS\BACKUP\WET\WET\RELEASE\MAIN.OBJ
D:\민주\PROJECTS\BACKUP\WET\WET\RELEASE\VIEWER.OBJ
D:\민주\PROJECTS\BACKUP\WET\WET\RELEASE\SIMULATOR.OBJ
^D:\민주\PROJECTS\BACKUP\WET\WET\SIMULATOR.CPP|D:\민주\PROJECTS\BACKUP\WET\WET\WETCLOTH.CPP
D:\민주\PROJECTS\BACKUP\WET\WET\RELEASE\VC120.PDB
D:\민주\PROJECTS\BACKUP\WET\WET\RELEASE\WETCLOTH.OBJ
D:\민주\PROJECTS\BACKUP\WET\WET\RELEASE\SIMULATOR.OBJ
^D:\민주\PROJECTS\BACKUP\WET\WET\SIMULATOR.CPP|D:\민주\PROJECTS\BACKUP\WET\WET\VIEWER.CPP
D:\민주\PROJECTS\BACKUP\WET\WET\RELEASE\VC120.PDB
D:\민주\PROJECTS\BACKUP\WET\WET\RELEASE\VIEWER.OBJ
D:\민주\PROJECTS\BACKUP\WET\WET\RELEASE\SIMULATOR.OBJ
^D:\민주\PROJECTS\BACKUP\WET\WET\MAIN.CPP|D:\민주\PROJECTS\BACKUP\WET\WET\SIMULATOR.CPP|D:\민주\PROJECTS\BACKUP\WET\WET\VIEWER.CPP|D:\민주\PROJECTS\BACKUP\WET\WET\WETCLOTH.CPP
D:\민주\PROJECTS\BACKUP\WET\WET\RELEASE\VC120.PDB
D:\민주\PROJECTS\BACKUP\WET\WET\RELEASE\MAIN.OBJ
D:\민주\PROJECTS\BACKUP\WET\WET\RELEASE\WETCLOTH.OBJ
D:\민주\PROJECTS\BACKUP\WET\WET\RELEASE\VIEWER.OBJ
D:\민주\PROJECTS\BACKUP\WET\WET\RELEASE\SIMULATOR.OBJ
^D:\민주\PROJECTS\BACKUP\WET\WET\VIEWER.CPP
D:\민주\PROJECTS\BACKUP\WET\WET\RELEASE\VC120.PDB
^D:\민주\PROJECTS\BACKUP\WET\WET\WETCLOTH.CPP
D:\민주\PROJECTS\BACKUP\WET\WET\RELEASE\VC120.PDB
^D:\민주\PROJECTS\BACKUP\WET\WET\MAIN.CPP
D:\민주\PROJECTS\BACKUP\WET\WET\RELEASE\VC120.PDB
^D:\민주\PROJECTS\BACKUP\WET\WET\SIMULATOR.CPP
D:\민주\PROJECTS\BACKUP\WET\WET\RELEASE\VC120.PDB
D:\민주\PROJECTS\BACKUP\WET\WET\RELEASE\SIMULATOR.OBJ
^E:\PROJECTS\BACKUP\WET\WET\MAIN.CPP|E:\PROJECTS\BACKUP\WET\WET\SIMULATOR.CPP|E:\PROJECTS\BACKUP\WET\WET\VIEWER.CPP|E:\PROJECTS\BACKUP\WET\WET\WETCLOTH.CPP
E:\PROJECTS\BACKUP\WET\WET\RELEASE\VC141.PDB
E:\PROJECTS\BACKUP\WET\WET\RELEASE\VIEWER.OBJ
^E:\PROJECTS\BACKUP\WET\WET\VIEWER.CPP
E:\PROJECTS\BACKUP\WET\WET\RELEASE\VIEWER.OBJ
