^D:\민주\PROJECTS\WET\WET\WET\DEBUG\MAIN.OBJ|D:\민주\PROJECTS\WET\WET\WET\DEBUG\SIMULATOR.OBJ|D:\민주\PROJECTS\WET\WET\WET\DEBUG\VIEWER.OBJ|D:\민주\PROJECTS\WET\WET\WET\DEBUG\WETCLOTH.OBJ
/OUT:"D:\민주\PROJECTS\WET\WET\DEBUG\WET.EXE" /INCREMENTAL /NOLOGO kernel32.lib user32.lib gdi32.lib winspool.lib comdlg32.lib advapi32.lib shell32.lib ole32.lib oleaut32.lib uuid.lib odbc32.lib odbccp32.lib /MANIFEST /MANIFESTUAC:"level='asInvoker' uiAccess='false'" /manifest:embed /DEBUG /PDB:"D:\민주\PROJECTS\WET\WET\DEBUG\WET.PDB" /TLBID:1 /DYNAMICBASE /NXCOMPAT /IMPLIB:"D:\민주\PROJECTS\WET\WET\DEBUG\WET.LIB" /MACHINE:X86 DEBUG\MAIN.OBJDEBUG\SIMULATOR.OBJDEBUG\VIEWER.OBJDEBUG\WETCLOTH.OBJ
^D:\민주\PROJECTS\BACKUP\WET\WET\DEBUG\MAIN.OBJ|D:\민주\PROJECTS\BACKUP\WET\WET\DEBUG\SIMULATOR.OBJ|D:\민주\PROJECTS\BACKUP\WET\WET\DEBUG\VIEWER.OBJ|D:\민주\PROJECTS\BACKUP\WET\WET\DEBUG\WETCLOTH.OBJ
/OUT:"D:\민주\PROJECTS\BACKUP\WET\DEBUG\WET.EXE" /INCREMENTAL /NOLOGO kernel32.lib user32.lib gdi32.lib winspool.lib comdlg32.lib advapi32.lib shell32.lib ole32.lib oleaut32.lib uuid.lib odbc32.lib odbccp32.lib /MANIFEST /MANIFESTUAC:"level='asInvoker' uiAccess='false'" /manifest:embed /DEBUG /PDB:"D:\민주\PROJECTS\BACKUP\WET\DEBUG\WET.PDB" /TLBID:1 /DYNAMICBASE /NXCOMPAT /IMPLIB:"D:\민주\PROJECTS\BACKUP\WET\DEBUG\WET.LIB" /MACHINE:X86 DEBUG\MAIN.OBJDEBUG\SIMULATOR.OBJDEBUG\VIEWER.OBJDEBUG\WETCLOTH.OBJ
