^D:\민주\PROJECTS\BACKUP\WET\WET\DEBUG\MAIN.OBJ|D:\민주\PROJECTS\BACKUP\WET\WET\DEBUG\SIMULATOR.OBJ|D:\민주\PROJECTS\BACKUP\WET\WET\DEBUG\VIEWER.OBJ|D:\민주\PROJECTS\BACKUP\WET\WET\DEBUG\WETCLOTH.OBJ
D:\민주\PROJECTS\BACKUP\WET\DEBUG\WET.ILK
D:\민주\PROJECTS\BACKUP\WET\DEBUG\WET.EXE
D:\민주\PROJECTS\BACKUP\WET\DEBUG\WET.PDB
